{
  "guid": "hasCreator",
  "allowMultiple": true,
  "main": "hasCreator",
  "labels": {
    "fr": "a comme fondateur.s",
    "en": "founder.s is.are"
  },
  "descriptions": {
    "fr": "Personne.s et/ou Compagnies ayant créé",
    "en": "Person or Company who created"
  },
  "aliases": [],
  "constraintEntity": [
    "person",
    "company"
  ],
  "inverse": "isCreatorOf"
}