{
  "guid": "hasParent",
  "allowMultiple": true,
  "main": "isParentOf",
  "labels": {
    "fr": "a comme parent.s",
    "en": "has parent.s"
  },
  "descriptions": {
    "fr": "Lien de parenté ascendant",
    "en": "Ascendant family relationship"
  },
  "aliases": [],
  "constraintEntity": [
    "person",
    "company"
  ],
  "inverse": "isParentOf"
}