{
  "guid": "isHandledBy",
  "allowMultiple": true,
  "main": "isHandledBy",
  "labels": {
    "fr": "est géré.e par",
    "en": "is handle by"
  },
  "descriptions": {
    "fr": "Personne en charge",
    "en": "Person in charge"
  },
  "aliases": [],
  "constraintEntity": [
    "person"
  ],
  "inverse": "worksOn"
}