{
  "guid": "isHosting",
  "allowMultiple": true,
  "main": "takesPlace",
  "labels": {
    "fr": "héberge",
    "en": "hosts"
  },
  "descriptions": {
    "fr": "Element.s hébergé dans l'entroit",
    "en": "Element hosted in the place"
  },
  "aliases": [],
  "constraintEntity": [
    "project",
    "company",
    "person"
  ],
  "inverse": "takesPlace"
}